[
  {
    "id": 0,
    "name": "Bluegrain",
    "content": "Aliquip veniam ullamco qui elit. Amet et fugiat qui velit ad adipisicing aliqua excepteur sint enim sint nisi nostrud consectetur. Aliquip sint in exercitation Lorem. Dolore est et qui proident laborum. Voluptate ullamco minim exercitation laborum eiusmod in non proident sunt ad exercitation. Aute irure nostrud veniam ut est aliquip qui deserunt non aliquip ut.",
    "comments": [
      {
        "username": "Keri",
        "city": "Bainbridge",
        "email": "keritownsend@bluegrain.com",
        "content": "Velit ipsum elit eiusmod commodo quis. Nulla consequat duis commodo adipisicing ullamco ut qui cillum. Exercitation consequat voluptate elit ullamco voluptate incididunt sit proident aliquip nulla ex commodo irure. Labore tempor labore occaecat nisi enim laboris ea ullamco sint ipsum labore Lorem sunt enim. Consectetur fugiat pariatur quis et minim exercitation consequat ea ea ut enim voluptate sint ad."
      }
    ]
  },
  {
    "id": 1,
    "name": "Parleynet",
    "content": "Commodo nostrud aliqua irure elit eu. Excepteur aliqua eu dolor proident veniam enim pariatur Lorem quis dolore sunt. Qui sit deserunt amet deserunt esse aliqua enim ipsum dolore consequat labore. Incididunt reprehenderit laboris voluptate excepteur sit culpa reprehenderit consectetur. Consequat veniam aute nostrud enim sit occaecat incididunt in sint adipisicing aliquip labore adipisicing. Ex enim commodo reprehenderit dolore consectetur eiusmod non exercitation consequat excepteur reprehenderit labore.",
    "comments": [
      {
        "username": "Krista",
        "city": "Oretta",
        "email": "kristatownsend@parleynet.com",
        "content": "Cupidatat id eu esse velit culpa ut qui. Lorem excepteur qui deserunt exercitation amet nostrud sit aliquip nostrud commodo excepteur veniam ad sunt. Est laboris aliquip laboris pariatur adipisicing velit commodo sunt est tempor culpa occaecat in. Pariatur elit laborum minim cillum tempor aliqua duis pariatur velit qui. Incididunt aliquip duis dolor eiusmod officia magna enim nostrud."
      }
    ]
  },
  {
    "id": 2,
    "name": "Enormo",
    "content": "Amet elit do aliquip sit. Adipisicing amet esse duis esse elit enim occaecat aliqua ullamco irure. Laborum eu exercitation qui esse exercitation exercitation. Irure incididunt voluptate consectetur ipsum labore. Deserunt irure consequat laboris Lorem sunt duis ex incididunt incididunt fugiat pariatur. Nisi eiusmod proident pariatur excepteur sit Lorem.",
    "comments": [
      {
        "username": "Parks",
        "city": "Noblestown",
        "email": "parkstownsend@enormo.com",
        "content": "Proident et culpa ut minim adipisicing sunt occaecat culpa voluptate nostrud Lorem proident nostrud non. Amet officia do eiusmod dolore ad excepteur in aute enim. Pariatur ea sint veniam elit. Tempor ad cillum sunt cupidatat voluptate irure id nostrud dolore velit. Quis ipsum tempor excepteur ipsum cillum ipsum id excepteur."
      },
      {
        "username": "Ramona",
        "city": "Witmer",
        "email": "ramonatownsend@enormo.com",
        "content": "Anim nulla ut eu nostrud excepteur Lorem reprehenderit cupidatat nulla culpa incididunt. In duis elit consectetur excepteur laborum quis ea ex nostrud ex. Aliquip occaecat est Lorem aute non. Nostrud sit est laboris qui occaecat aliquip fugiat officia mollit eiusmod labore aute laboris. Cupidatat nisi culpa magna amet amet id."
      }
    ]
  },
  {
    "id": 3,
    "name": "Exosis",
    "content": "Deserunt consequat dolor cillum aliquip veniam quis excepteur nisi ex et Lorem excepteur in. Aliquip aliqua eu dolor cupidatat culpa exercitation eu adipisicing in aliqua. Est sunt qui ipsum dolore exercitation amet et. Do sunt aliquip ad mollit nulla fugiat. Laboris amet consectetur irure anim. Esse nostrud Lorem aliqua excepteur.",
    "comments": [
      {
        "username": "Kristy",
        "city": "Jeff",
        "email": "kristytownsend@exosis.com",
        "content": "Magna excepteur tempor exercitation fugiat non tempor. Consequat dolor nisi eu adipisicing nisi labore nisi aliqua magna exercitation aliquip culpa. Dolor veniam enim aute anim aute do. Ex irure nostrud irure eu deserunt nulla fugiat est irure aliqua officia laboris. Officia voluptate ipsum esse cupidatat est excepteur adipisicing est."
      },
      {
        "username": "Conway",
        "city": "Rehrersburg",
        "email": "conwaytownsend@exosis.com",
        "content": "Ipsum exercitation mollit dolore culpa sint ad pariatur et quis aliqua eiusmod adipisicing. Dolor incididunt nostrud incididunt pariatur nisi dolore minim exercitation occaecat commodo quis cupidatat elit. Minim in mollit labore pariatur. Do elit elit velit voluptate ea labore proident excepteur magna voluptate occaecat labore. Minim ad elit nulla voluptate."
      }
    ]
  },
  {
    "id": 4,
    "name": "Zepitope",
    "content": "Sint ea cupidatat eiusmod esse nulla in ex id anim ut reprehenderit exercitation. Culpa pariatur id Lorem Lorem ullamco dolore aliquip. Do amet proident commodo aliquip nulla qui laborum sint irure proident laboris sit adipisicing. Laborum duis dolor Lorem aliqua id nostrud ea qui. Consequat proident nostrud aliquip sint. Commodo dolore nostrud nisi laborum deserunt laborum reprehenderit sunt.",
    "comments": [
      {
        "username": "Kim",
        "city": "Roosevelt",
        "email": "kimtownsend@zepitope.com",
        "content": "Tempor fugiat ex consectetur magna id adipisicing veniam sit. Irure excepteur ut incididunt non cupidatat sint fugiat exercitation. Elit nulla eiusmod magna aute ea. Ullamco consectetur nisi anim qui excepteur ut laboris aliqua tempor in proident sit esse. Incididunt voluptate laboris dolor enim officia dolor aliquip excepteur est."
      },
      {
        "username": "Raymond",
        "city": "Caroleen",
        "email": "raymondtownsend@zepitope.com",
        "content": "Anim ea aute id amet in dolor quis aliqua. Aliquip cupidatat qui velit amet anim labore esse deserunt proident deserunt non dolor aliqua cillum. Culpa magna ut elit ad tempor voluptate ea amet ut non culpa. Officia amet sint commodo ex exercitation aute incididunt fugiat consequat esse. Nulla irure ullamco sunt eu anim culpa."
      },
      {
        "username": "Henrietta",
        "city": "Osage",
        "email": "henriettatownsend@zepitope.com",
        "content": "Minim ex occaecat laborum aute adipisicing incididunt velit ea pariatur esse. Sunt exercitation officia deserunt et excepteur ullamco sint officia. Officia officia exercitation esse incididunt tempor irure ut reprehenderit irure exercitation ex. Aliquip ad occaecat amet eu ullamco proident ex Lorem. Minim velit deserunt non pariatur aliqua ex commodo nisi et nisi elit commodo ullamco fugiat."
      }
    ]
  },
  {
    "id": 5,
    "name": "Hairport",
    "content": "Ipsum incididunt proident est sint nulla. Eiusmod nulla minim nostrud est. Nostrud quis non sunt non cillum elit cupidatat eu consequat nisi cillum nulla. Occaecat aute laboris anim est ea ipsum minim tempor eiusmod adipisicing occaecat voluptate. Adipisicing tempor irure nisi sit. Dolore id aliquip ea officia anim sunt elit esse labore qui sint.",
    "comments": [
      {
        "username": "Jacklyn",
        "city": "Navarre",
        "email": "jacklyntownsend@hairport.com",
        "content": "Enim est nostrud tempor ad quis ipsum est dolore non adipisicing duis minim reprehenderit reprehenderit. Fugiat irure reprehenderit tempor excepteur et consectetur anim duis. Ea aliquip incididunt exercitation minim do nulla non reprehenderit mollit esse tempor qui. Commodo nisi id fugiat ad. Duis fugiat labore irure Lorem nisi duis dolor labore."
      },
      {
        "username": "Rosario",
        "city": "Kimmell",
        "email": "rosariotownsend@hairport.com",
        "content": "Labore aliquip ea elit elit nostrud minim velit nostrud ullamco anim officia laborum minim enim. Excepteur id enim sit quis ad adipisicing. Et anim quis minim et est voluptate. Officia proident laborum ipsum ipsum culpa non dolor occaecat. Veniam et dolore eiusmod enim sint esse ipsum velit enim dolore magna minim labore."
      }
    ]
  },
  {
    "id": 6,
    "name": "Comdom",
    "content": "Aliquip qui quis minim excepteur mollit aliqua enim qui irure. Minim sunt consequat officia ex occaecat ullamco nisi quis eiusmod. Elit ipsum deserunt ad duis eu irure ad aliquip excepteur laborum. Incididunt Lorem sint anim ex Lorem anim id reprehenderit aliquip dolor velit exercitation eiusmod nisi. Sint et culpa laborum minim ea velit tempor nisi consectetur veniam ad excepteur anim. Id consectetur voluptate dolore aliqua tempor ullamco velit eu.",
    "comments": [
      {
        "username": "Montoya",
        "city": "Madrid",
        "email": "montoyatownsend@comdom.com",
        "content": "Ad dolore esse ullamco deserunt. Reprehenderit ut irure occaecat est. Magna minim pariatur minim elit. Pariatur nulla non amet sint fugiat laborum nisi. Exercitation duis laboris ipsum id elit minim incididunt."
      },
      {
        "username": "Lynette",
        "city": "Troy",
        "email": "lynettetownsend@comdom.com",
        "content": "In labore ex sint nostrud ex ex ex Lorem tempor laboris minim. Fugiat pariatur laboris consequat amet commodo excepteur mollit ullamco amet elit fugiat. Est occaecat aliquip cillum Lorem incididunt qui minim dolore proident veniam. Magna amet ad ea ullamco qui ullamco elit commodo qui amet. Lorem eiusmod commodo elit ipsum esse laborum non labore cupidatat nisi enim."
      },
      {
        "username": "Webster",
        "city": "Alfarata",
        "email": "webstertownsend@comdom.com",
        "content": "Consectetur commodo cillum elit ex ipsum. Eu amet laborum eiusmod quis culpa nulla reprehenderit exercitation commodo deserunt. Consequat eiusmod nisi ullamco cillum aliquip cupidatat veniam est eiusmod laboris. Cupidatat dolore et culpa deserunt eu occaecat velit mollit irure irure exercitation proident. Eu Lorem officia proident amet minim veniam aliqua ipsum aute."
      }
    ]
  }
]
